FSM_locking/code/HeLLOCTF_2023_warmup_SST-20230916T062711Z-001 (4)/HeLLOCTF_2023_warmup_SST (copy)/test.vcd
$date
	Wed Feb 14 14:48:03 2024
$end
$version
	Icarus Verilog
$end
$timescale
	1ps
$end
$scope module test_org_tb $end
$var wire 2 ! out [1:0] $end
$var reg 1 " clk $end
$var reg 2 # in [1:0] $end
$var reg 1 $ rd_inputs $end
$var reg 1 % rst $end
$var integer 32 & inFile [31:0] $end
$var integer 32 ' outFile [31:0] $end
$var integer 32 ( scan [31:0] $end
$scope module UUT $end
$var wire 1 " clock $end
$var wire 1 ) line1 $end
$var wire 1 * line2 $end
$var wire 1 % reset $end
$var wire 3 + stato [2:0] $end
$var wire 1 , overflw $end
$var wire 1 - outp $end
$var wire 1 . n50 $end
$var wire 1 / n49 $end
$var wire 1 0 n48 $end
$var wire 1 1 n47 $end
$var wire 1 2 n46 $end
$var wire 1 3 n45 $end
$var wire 1 4 n44 $end
$var wire 1 5 n43 $end
$var wire 1 6 n42 $end
$var wire 1 7 n41 $end
$var wire 1 8 n40 $end
$var wire 1 9 n39 $end
$var wire 1 : n38 $end
$var wire 1 ; n37 $end
$var wire 1 < n36 $end
$var wire 1 = n35 $end
$var wire 1 > n34 $end
$var wire 1 ? n33 $end
$var wire 1 @ n32 $end
$var wire 1 A n31 $end
$var wire 1 B n30 $end
$var wire 1 C n3 $end
$var wire 1 D n29 $end
$var wire 1 E n28 $end
$var wire 1 F n2 $end
$var wire 1 G n1 $end
$var wire 1 H N42 $end
$var wire 1 I N41 $end
$scope module U33 $end
$var wire 1 E X $end
$var wire 1 J xor0_out_X $end
$var wire 1 B B $end
$var wire 1 D A $end
$upscope $end
$scope module U34 $end
$var wire 1 K A $end
$var wire 1 B Y $end
$var wire 1 L nand0_out_Y $end
$var wire 1 A B $end
$upscope $end
$scope module U35 $end
$var wire 1 M A1 $end
$var wire 1 N B1 $end
$var wire 1 F Y $end
$var wire 1 O nor0_out $end
$var wire 1 P nor1_out $end
$var wire 1 Q or0_out_Y $end
$var wire 1 ? B2 $end
$var wire 1 @ A2 $end
$upscope $end
$scope module U36 $end
$var wire 1 ? Y $end
$var wire 1 R nor0_out_Y $end
$var wire 1 = B $end
$var wire 1 > A $end
$upscope $end
$scope module U37 $end
$var wire 1 > Y $end
$var wire 1 S and0_out $end
$var wire 1 T nor0_out_Y $end
$var wire 1 ; B1 $end
$var wire 1 D A2 $end
$var wire 1 < A1 $end
$upscope $end
$scope module U38 $end
$var wire 1 @ Y $end
$var wire 1 U nor0_out_Y $end
$var wire 1 = B $end
$var wire 1 : A $end
$upscope $end
$scope module U39 $end
$var wire 1 % A $end
$var wire 1 G Y $end
$var wire 1 V not0_out_Y $end
$upscope $end
$scope module U40 $end
$var wire 1 H Y $end
$var wire 1 W nand0_out_Y $end
$var wire 1 X or0_out $end
$var wire 1 Y or1_out $end
$var wire 1 7 C1 $end
$var wire 1 ; B2 $end
$var wire 1 8 B1 $end
$var wire 1 9 A2 $end
$var wire 1 < A1 $end
$upscope $end
$scope module U41 $end
$var wire 1 7 Y $end
$var wire 1 Z nand0_out_Y $end
$var wire 1 [ or0_out $end
$var wire 1 : B1 $end
$var wire 1 ; A2 $end
$var wire 1 = A1 $end
$upscope $end
$scope module U42 $end
$var wire 1 8 Y $end
$var wire 1 \ and0_out $end
$var wire 1 ] nor0_out_Y $end
$var wire 1 5 B1 $end
$var wire 1 D A2 $end
$var wire 1 6 A1 $end
$upscope $end
$scope module U43 $end
$var wire 1 5 Y $end
$var wire 1 ^ and0_out $end
$var wire 1 _ nor0_out_Y $end
$var wire 1 < B1 $end
$var wire 1 D A2 $end
$var wire 1 4 A1 $end
$upscope $end
$scope module U44 $end
$var wire 1 I Y $end
$var wire 1 ` nand0_out_Y $end
$var wire 1 2 B $end
$var wire 1 3 A $end
$upscope $end
$scope module U45 $end
$var wire 1 2 Y $end
$var wire 1 a mux_2to1_n0_out_Y $end
$var wire 1 ; S $end
$var wire 1 0 A1 $end
$var wire 1 1 A0 $end
$upscope $end
$scope module U46 $end
$var wire 1 b A $end
$var wire 1 0 Y $end
$var wire 1 c nor0_out_Y $end
$var wire 1 9 B $end
$upscope $end
$scope module U47 $end
$var wire 1 9 Y $end
$var wire 1 d not0_out_Y $end
$var wire 1 6 A $end
$upscope $end
$scope module U48 $end
$var wire 1 e B $end
$var wire 1 6 Y $end
$var wire 1 f nor0_out_Y $end
$var wire 1 = A $end
$upscope $end
$scope module U49 $end
$var wire 1 = Y $end
$var wire 1 g not0_out_Y $end
$var wire 1 4 A $end
$upscope $end
$scope module U50 $end
$var wire 1 1 Y $end
$var wire 1 h nor0_out_Y $end
$var wire 1 D B $end
$var wire 1 : A $end
$upscope $end
$scope module U51 $end
$var wire 1 * A1 $end
$var wire 1 ) A2 $end
$var wire 1 D Y $end
$var wire 1 i nand0_out_Y $end
$var wire 1 j or0_out $end
$var wire 1 4 B1 $end
$upscope $end
$scope module U52 $end
$var wire 1 3 Y $end
$var wire 1 k mux_2to1_n0_out_Y $end
$var wire 1 4 S $end
$var wire 1 C A1 $end
$var wire 1 / A0 $end
$upscope $end
$scope module U53 $end
$var wire 1 * A $end
$var wire 1 ) B $end
$var wire 1 4 Y $end
$var wire 1 l nand0_out_Y $end
$upscope $end
$scope module U54 $end
$var wire 1 m B $end
$var wire 1 C Y $end
$var wire 1 n nor0_out_Y $end
$var wire 1 . C $end
$var wire 1 < A $end
$upscope $end
$scope module U55 $end
$var wire 1 o A1 $end
$var wire 1 / Y $end
$var wire 1 p nand0_out_Y $end
$var wire 1 q or0_out $end
$var wire 1 ; C1 $end
$var wire 1 A B1 $end
$var wire 1 < A2 $end
$upscope $end
$scope module U56 $end
$var wire 1 r A $end
$var wire 1 ; Y $end
$var wire 1 s not0_out_Y $end
$upscope $end
$scope module U57 $end
$var wire 1 A Y $end
$var wire 1 t not0_out_Y $end
$var wire 1 : A $end
$upscope $end
$scope module U58 $end
$var wire 1 u B $end
$var wire 1 : Y $end
$var wire 1 v nor0_out_Y $end
$var wire 1 . A $end
$upscope $end
$scope module U59 $end
$var wire 1 w A $end
$var wire 1 . Y $end
$var wire 1 x not0_out_Y $end
$upscope $end
$scope module U60 $end
$var wire 1 y A $end
$var wire 1 < Y $end
$var wire 1 z not0_out_Y $end
$upscope $end
$scope module outp_reg $end
$var wire 1 " CLK $end
$var wire 1 E D $end
$var wire 1 - Q $end
$var wire 1 { RESET $end
$var wire 1 G RESET_B $end
$var wire 1 | buf_Q $end
$upscope $end
$scope module overflw_reg $end
$var wire 1 " CLK $end
$var wire 1 C D $end
$var wire 1 , Q $end
$var wire 1 } RESET $end
$var wire 1 G RESET_B $end
$var wire 1 ~ buf_Q $end
$upscope $end
$scope module stato_reg[0] $end
$var wire 1 " CLK $end
$var wire 1 I D $end
$var wire 1 !" Q $end
$var wire 1 "" RESET $end
$var wire 1 G RESET_B $end
$var wire 1 #" buf_Q $end
$upscope $end
$scope module stato_reg[1] $end
$var wire 1 " CLK $end
$var wire 1 H D $end
$var wire 1 $" Q $end
$var wire 1 %" RESET $end
$var wire 1 G RESET_B $end
$var wire 1 &" buf_Q $end
$upscope $end
$scope module stato_reg[2] $end
$var wire 1 " CLK $end
$var wire 1 F D $end
$var wire 1 '" Q $end
$var wire 1 (" RESET $end
$var wire 1 G RESET_B $end
$var wire 1 )" buf_Q $end
$upscope $end
$upscope $end
$upscope $end
$enddefinitions $end
#190000000000000000
$dumpvars
0)"
0("
0'"
0&"
0%"
0$"
0#"
0""
0!"
0~
0}
0|
0{
1z
0y
1x
0w
0v
0u
1t
1s
0r
1q
0p
0o
0n
0m
1l
1k
1j
0i
1h
0g
1f
0e
0d
1c
0b
0a
1`
0_
0^
1]
0\
1[
1Z
1Y
1X
0W
1V
1U
0T
0S
1R
0Q
0P
0O
0N
0M
1L
0K
1J
1I
0H
1G
0F
1E
0D
0C
1B
1A
1@
1?
0>
0=
1<
1;
0:
09
18
17
16
05
14
13
02
11
10
0/
1.
0-
0,
b0 +
0*
1)
b1 (
b10000000000000000000000000000100 '
b10000000000000000000000000000011 &
0%
1$
b1 #
1"
b0 !
$end
#200000000000000000
0"
#210000000000000000
1F
03
19
1Q
1I
0k
08
1d
1P
1O
1`
1/
0H
01
0]
0E
06
0@
0?
12
1p
15
0W
0h
0\
0J
0f
0U
0R
1a
0q
1_
1Y
1D
1=
00
0<
1i
1g
0c
0z
04
1b
1u
1y
0l
b1 !
1-
b1 +
1!"
1*
1|
1#"
b11 #
1"
#220000000000000000
0"
#230000000000000000
0Y
1F
09
1Q
0d
1\
1O
08
1H
0I
16
1@
0?
0]
1E
1W
1>
0`
1f
1U
0R
05
1J
0[
0X
1T
13
0=
0_
0B
0;
1k
0g
1^
0L
0P
0s
14
1K
1M
1m
1r
0j
1l
b0 !
0-
b101 +
1'"
0)
0*
0|
1)"
b0 #
1"
#240000000000000000
0"
#250000000000000000
1B
0I
0H
1L
0`
0W
0A
0@
12
1X
0t
0U
1a
18
19
1:
01
1]
1E
1Y
0F
1d
1v
0h
0^
0\
1J
00
1<
0Q
06
0.
0D
0c
1z
0O
0f
1q
0x
0i
0b
0u
0y
1N
1e
1o
1w
1j
b1 !
1-
0!"
b110 +
1$"
1)
1|
0#"
1&"
b1 #
1"
#260000000000000000
0"
#270000000000000000
1I
1`
02
0/
0a
0p
0H
10
1A
11
1@
0W
1?
1c
1t
1h
1U
17
1R
09
0:
1Z
0>
0d
0v
0F
1[
0T
16
1.
0Q
1;
0O
1f
1x
0P
1s
0N
0e
0o
0w
0K
0M
0m
0r
0$"
b0 +
0'"
0&"
0)"
1"
#280000000000000000
0"
#290000000000000000
0I
08
0`
1/
0]
1H
12
1p
15
1W
1a
0q
1_
0Y
00
0<
0c
0z
1b
1u
1y
b1 +
1!"
1#"
1"
#300000000000000000
0"
#310000000000000000
1F
1Q
18
0A
07
1P
1]
1H
0t
0Z
1I
01
0E
0@
0?
12
05
1W
19
1:
1`
0h
0J
0U
0R
1a
0_
1Y
1S
1d
1/
1v
03
1D
1=
00
1<
06
1p
0.
0k
1i
1g
0c
1z
0f
1q
0x
04
0b
0u
0y
1N
1e
1o
1w
0l
0!"
b10 +
1$"
1*
0#"
1&"
b11 #
1"
#320000000000000000
0"
#330000000000000000
1E
1J
0X
0B
1H
08
0L
1W
0]
1>
1A
17
15
1T
1t
1Z
1_
0S
0F
0:
0<
0Q
0;
0v
0z
0P
0s
1b
1u
1y
1K
1M
1m
1r
b0 !
0-
1!"
b111 +
1'"
0|
1#"
1)"
1"
#340000000000000000
0"
#350000000000000000
1?
08
0H
1R
1I
11
1@
0]
0/
0W
0>
1`
1h
1U
15
0F
0p
1X
0T
03
0D
0=
1_
1B
0Q
1C
1;
0k
0i
0g
0^
1L
0P
1n
1s
14
0K
0M
0m
0r
1l
b1 !
1-
b11 +
0'"
0*
1|
0)"
b1 #
1"
#360000000000000000
0"
#370000000000000000
0I
1H
0`
1W
13
0Y
1k
09
0C
0d
1/
0n
16
1p
1.
1f
0q
1x
0N
0e
0o
0w
b11 !
1,
b1 +
0$"
1~
0&"
1"
#380000000000000000
0"
#390000000000000000
1F
1Q
1P
0I
18
0A
07
0@
0`
1]
1H
0t
0Z
0U
12
05
1W
19
1:
01
0E
1a
0_
1Y
1d
1/
1v
0h
1^
1S
0J
00
1<
06
1p
0.
1D
0c
1z
0f
1q
0x
1i
0b
0u
0y
1N
1e
1o
1w
0j
b1 !
0,
0!"
b10 +
1$"
0)
0~
0#"
1&"
b0 #
1"
#400000000000000000
0"
#410000000000000000
0H
0W
0?
17
0R
1Z
1>
1E
0F
0[
1T
0^
0S
1J
0Q
0;
0D
0P
0s
0i
1K
1M
1m
1r
1j
b0 !
0-
b110 +
1'"
1)
0|
1)"
b1 #
1"
#420000000000000000
0"
#430000000000000000
12
0/
1a
0p
0H
00
1A
0W
0c
18
1t
17
0I
0E
19
1]
0:
1Z
0>
0`
1S
0J
1d
0\
0v
1F
1[
0T
13
1D
1=
06
1.
1Q
1;
1k
1i
1g
1O
0f
1x
1P
1s
04
0N
0e
0o
0w
0K
0M
0m
0r
0l
b1 !
1-
0$"
b0 +
0'"
1*
1|
0&"
0)"
b11 #
1"
#440000000000000000
0"
#450000000000000000
1I
1`
03
0k
1E
1/
1J
1p
0B
0;
0L
0P
0s
1K
1M
1m
1r
b0 !
0-
b100 +
1'"
0|
1)"
1"
#460000000000000000
0"
#470000000000000000
1H
1W
0X
0Y
08
1F
09
0]
1Q
0d
1\
1O
1>
0I
16
1@
0?
1T
0`
1f
0[
1U
0R
0q
0S
13
0=
0<
1k
0g
1^
0z
14
1b
1u
1y
0j
1l
b1 !
1-
b101 +
1!"
0)
0*
1|
1#"
b0 #
1"
#480000000000000000
0"
#490000000000000000
1B
0I
0H
1L
0`
0W
0A
0@
12
1X
0t
0U
1a
18
19
1:
01
1]
1E
1Y
0F
1d
1v
0h
0^
0\
1J
00
1<
0Q
06
0.
0D
0c
1z
0O
0f
1q
0x
0i
0b
0u
0y
1N
1e
1o
1w
1j
0!"
b110 +
1$"
1)
0#"
1&"
b1 #
1"
#500000000000000000
0"
#510000000000000000
1I
1`
02
0/
0a
0p
0H
10
1A
11
1@
0W
1?
1c
1t
1h
1U
17
1R
09
0:
1Z
0>
0d
0v
0F
1[
0T
16
1.
0Q
1;
0O
1f
1x
0P
1s
0N
0e
0o
0w
0K
0M
0m
0r
0$"
b0 +
0'"
0&"
0)"
1"
#520000000000000000
0"
#530000000000000000
0I
08
0`
1/
0]
1H
12
1p
15
1W
1a
0q
1_
0Y
00
0<
0c
0z
1b
1u
1y
b1 +
1!"
0)
1*
1#"
b10 #
1"
#540000000000000000
0"
#550000000000000000
1F
1Q
1P
0I
18
0A
01
07
0@
0`
1]
1H
0t
0h
0Z
0U
12
05
1W
19
1:
1a
0_
1Y
1d
1/
1v
00
1<
06
1p
0.
0c
1z
0f
1q
0x
0b
0u
0y
1N
1e
1o
1w
0!"
b10 +
1$"
0#"
1&"
1"
#560000000000000000
0"
#570000000000000000
0H
0W
0?
17
0R
1Z
1>
0F
0[
1T
0Q
0;
0P
0s
1K
1M
1m
1r
b110 +
1'"
1)
0*
1)"
b1 #
1"
#580000000000000000
0"
#590000000000000000
12
0/
1a
0p
0H
00
1A
0W
0c
18
1t
17
0I
0E
19
1]
0:
1Z
0>
0`
1S
0J
1d
0\
0v
1F
1[
0T
13
1D
1=
06
1.
1Q
1;
1k
1i
1g
1O
0f
1x
1P
1s
04
0N
0e
0o
0w
0K
0M
0m
0r
0l
0$"
b0 +
0'"
1*
0&"
0)"
b11 #
1"
#600000000000000000
0"
#610000000000000000
1I
10
1`
1c
1F
02
09
1Q
0a
1>
0d
1O
11
1T
16
1@
0?
1/
1h
0S
1f
1U
0R
1p
0[
0D
0=
0B
0;
0i
0g
0^
0L
0P
0s
14
1K
1M
1m
1r
1l
b0 !
0-
b100 +
1'"
0)
0|
1)"
b10 #
1"
#620000000000000000
0"
#630000000000000000
12
0X
19
1a
08
1d
1H
01
0]
1E
06
0@
15
1W
0h
0\
1J
0f
1[
0U
0q
1_
1Y
03
1D
1=
00
0<
0k
1i
1g
0c
0z
04
1b
1u
1y
0l
b101 +
1!"
1)
1#"
b11 #
1"
#640000000000000000
0"
#650000000000000000
1H
1W
02
0X
0a
08
1I
11
0E
1@
0]
1`
1h
0J
0[
1U
15
0F
13
0D
0=
1_
0Q
0.
1k
0i
0g
0^
0O
1q
0x
14
1N
1e
1o
1w
1l
b1 !
1-
b111 +
1$"
0*
1|
1&"
b1 #
1"
#660000000000000000
0"
#670000000000000000
0I
1F
0`
1Q
1P
0H
01
0@
0/
12
0W
0>
0h
0U
0p
1a
1[
1X
0T
13
1D
1=
1B
1C
1;
1k
1i
1g
1L
1n
1s
04
0K
0M
0m
0r
0l
b0 !
0-
b11 +
0'"
1*
0|
0)"
b11 #
1"
#680000000000000000
0"
#690000000000000000
10
0E
02
1c
1F
0J
0a
09
1Q
11
1@
0d
18
1h
1U
0H
1I
16
0?
1]
1A
0W
1>
1`
1f
0R
05
1t
1/
0[
1X
1T
13
0D
0=
0_
0:
1<
1p
1.
0B
0C
0;
1k
0i
0g
0^
0v
1z
1O
1q
1x
0L
0P
0n
0s
14
0b
0u
0y
0N
0e
0o
0w
1K
1M
1m
1r
1l
b10 !
1,
0!"
0$"
b100 +
1'"
0)
1~
0#"
0&"
1)"
b10 #
1"
#700000000000000000
0"
#710000000000000000
12
0X
19
1a
08
1d
1H
01
0]
1E
06
0@
15
1W
0h
0\
1J
0f
1[
0U
0q
1_
1Y
03
1D
1=
00
0<
0k
1i
1g
0c
0z
04
1b
1u
1y
0l
b0 !
0,
b101 +
1!"
1)
0~
1#"
b11 #
1"
#720000000000000000
0"
#730000000000000000
1H
1W
02
0X
0a
08
1I
11
0E
1@
0]
1`
1h
0J
0[
1U
15
0F
13
0D
0=
1_
0Q
0.
1k
0i
0g
0^
0O
1q
0x
14
1N
1e
1o
1w
1l
b1 !
1-
b111 +
1$"
0*
1|
1&"
b1 #
1"
#740000000000000000
0"
#750000000000000000
1?
0H
1R
1E
03
0/
12
0W
0>
1J
0k
0p
1a
1[
1X
0T
1B
1C
1;
1L
1n
1s
0K
0M
0m
0r
b0 !
0-
b11 +
0'"
0)
1*
0|
0)"
b10 #
1"
#760000000000000000
0"
#770000000000000000
1F
0H
1Q
0W
1P
1O
1Y
1I
01
0E
0@
0?
19
0C
1`
0h
0J
0U
0R
1d
0\
1/
0n
03
1D
1=
06
1p
1.
0k
1i
1g
0f
0q
1x
04
0N
0e
0o
0w
0l
1-
b11 !
1,
b1 +
0$"
1)
1|
1~
0&"
b11 #
1"
#780000000000000000
0"
#790000000000000000
0Y
1F
09
1Q
0d
1\
1O
08
1H
0I
16
1@
0?
0]
1E
1W
1>
0`
1f
1U
0R
05
1J
0[
0X
1T
13
0=
0_
0B
0;
1k
0g
1^
0L
0P
0s
14
1K
1M
1m
1r
0j
1l
0-
b0 !
0,
b101 +
1'"
0)
0*
0|
0~
1)"
b0 #
1"
#800000000000000000
0"
#810000000000000000
1B
0I
0H
1L
0`
0W
0A
0@
12
1X
0t
0U
1a
18
19
1:
01
1]
1E
1Y
0F
1d
1v
0h
0^
0\
1J
00
1<
0Q
06
0.
0D
0c
1z
0O
0f
1q
0x
0i
0b
0u
0y
1N
1e
1o
1w
1j
b1 !
1-
0!"
b110 +
1$"
1*
1|
0#"
1&"
b10 #
1"
#820000000000000000
0"
#830000000000000000
1I
1`
02
0/
0a
0p
0H
10
1A
1@
0W
1?
1c
1t
1U
17
1R
08
09
0:
1Z
0>
0]
0E
0d
0v
0F
1[
0T
1^
1\
1S
0J
16
1.
0Q
1;
1D
0O
1f
1x
0P
1s
1i
0N
0e
0o
0w
0K
0M
0m
0r
0j
0$"
b0 +
0'"
0*
0&"
0)"
b0 #
1"
#840000000000000000
0"
#850000000000000000
1F
03
19
1Q
1I
0k
1d
0\
1P
1O
1`
1/
0H
06
0@
0?
12
1p
0W
0f
0U
0R
15
1a
0q
1Y
0S
1=
1_
00
0<
1g
0^
0c
0z
04
1b
1u
1y
1j
0l
b0 !
0-
b1 +
1!"
1)
1*
0|
1#"
b11 #
1"
#860000000000000000
0"
#870000000000000000
1H
1E
1W
1>
1J
0X
1T
0B
0;
0L
0P
0s
1K
1M
1m
1r
b101 +
1'"
1)"
1"
#880000000000000000
0"
#890000000000000000
0H
0W
1X
18
0I
1@
1]
0`
0[
1U
05
0F
13
0=
0_
0Q
0.
1k
0g
1^
0O
1q
0x
14
1N
1e
1o
1w
0j
1l
b1 !
1-
b111 +
1$"
0)
0*
1|
1&"
b0 #
1"
#900000000000000000
0"
#910000000000000000
02
0a
0H
10
11
1I
1?
0W
0P
0/
1c
1h
1`
1R
1A
17
1@
0p
09
13
0>
1t
1Z
1U
0F
0d
1k
1[
0T
0^
0:
1<
0Q
16
1.
1B
0C
1;
0D
0v
1z
0O
1f
1q
1x
1L
0n
1s
0i
0b
0u
0y
0N
0e
0o
0w
0K
0M
0m
0r
1j
0!"
0$"
b0 +
0'"
1*
0#"
0&"
0)"
b10 #
1"
#920000000000000000
0"
#930000000000000000
0I
0`
1/
1H
08
12
1p
1W
01
0]
0E
1a
0q
0Y
0h
1^
1\
0J
00
0<
1D
0c
0z
1i
1b
1u
1y
0j
b1 +
1!"
0*
1#"
b0 #
1"
#940000000000000000
0"
#950000000000000000
1F
1Q
0A
07
1P
1H
18
0t
0Z
1I
0@
0?
12
1W
19
1]
1:
1`
0U
0R
1a
1Y
1S
1d
0\
1/
1v
03
1=
00
1<
06
1p
0.
0k
1g
0^
0c
1z
0f
1q
0x
04
0b
0u
0y
1N
1e
1o
1w
1j
0l
b0 !
0-
0!"
b10 +
1$"
1)
1*
0|
0#"
1&"
b11 #
1"
#960000000000000000
0"
#970000000000000000
0X
08
0]
0B
02
1H
15
0L
0a
1W
1>
1I
1_
0E
0?
1A
11
17
1@
1T
1`
0J
0R
1t
1h
1Z
1U
0S
0F
0[
13
0D
0=
0:
0<
0Q
0;
1k
0i
0g
0^
0v
0z
0P
0s
14
1b
1u
1y
1K
1M
1m
1r
1l
1!"
b111 +
1'"
0*
1#"
1)"
b1 #
1"
#980000000000000000
0"
#990000000000000000
1?
0H
1R
1E
03
0/
12
0W
0>
1J
0k
0p
1a
1[
1X
0T
1B
1C
1;
1L
1n
1s
0K
0M
0m
0r
b11 +
0'"
0)"
1"
#1000000000000000000
0"
#1010000000000000000
0I
1H
0`
1W
13
0Y
1k
09
0C
0d
1/
0n
16
1p
1.
1f
0q
1x
0N
0e
0o
0w
1-
b11 !
1,
b1 +
0$"
0)
1*
1|
1~
0&"
b10 #
1"
#1020000000000000000
0"
#1030000000000000000
1F
1Q
18
0A
07
1P
1]
1H
0t
0Z
1I
01
0E
0@
0?
12
05
1W
19
1:
1`
0h
0J
0U
0R
1a
0_
1Y
1S
1d
1/
1v
03
1D
1=
00
1<
06
1p
0.
0k
1i
1g
0c
1z
0f
1q
0x
04
0b
0u
0y
1N
1e
1o
1w
0l
b1 !
0,
0!"
b10 +
1$"
1)
0~
0#"
1&"
b11 #
1"
#1040000000000000000
0"
#1050000000000000000
1E
1J
0B
0H
0L
0W
1>
0I
0?
1A
17
1@
1T
0`
0R
1t
1Z
1U
0S
0F
0[
13
0=
0:
0<
0Q
0;
1k
0g
1^
0v
0z
0P
0s
14
1b
1u
1y
1K
1M
1m
1r
0j
1l
b0 !
0-
1!"
b111 +
1'"
0)
0*
0|
1#"
1)"
b0 #
1"
#1060000000000000000
0"
#1070000000000000000
02
0a
0H
10
1I
1?
0W
0P
0/
1c
08
1`
1R
1A
17
1@
0p
09
0]
0E
13
0>
1t
1Z
1U
1S
0F
0d
1\
0J
1k
1[
0T
0:
1<
0Q
16
1.
1B
0C
1;
0v
1z
0O
1f
1q
1x
1L
0n
1s
0b
0u
0y
0N
0e
0o
0w
0K
0M
0m
0r
b1 !
1-
0!"
0$"
b0 +
0'"
1|
0#"
0&"
0)"
1"
#1080000000000000000
0"
#1090000000000000000
1F
03
19
1Q
1I
0k
1d
0\
1P
1O
1`
1/
0H
06
0@
0?
12
1p
0W
0f
0U
0R
15
1a
0q
1Y
0S
1=
1_
00
0<
1g
0^
0c
0z
04
1b
1u
1y
1j
0l
b0 !
0-
b1 +
1!"
1)
1*
0|
1#"
b11 #
1"
#1100000000000000000
0"
#1110000000000000000
0Y
1F
02
09
1Q
0a
0d
1O
08
1H
1I
11
16
1@
0?
0]
1W
1>
1`
1h
1f
1U
0R
15
0[
0X
1T
13
0D
0=
1_
0B
0;
1k
0i
0g
0^
0L
0P
0s
14
1K
1M
1m
1r
1l
b101 +
1'"
0*
1)"
b1 #
1"
#1120000000000000000
0"
#1130000000000000000
1Y
19
0F
1d
0Q
06
0.
0O
0f
1q
0x
1N
1e
1o
1w
b111 +
1$"
1&"
1"
#1140000000000000000
0"
#1150000000000000000
1?
0H
1R
1E
03
0/
12
0W
0>
1J
0k
0p
1a
1[
1X
0T
1B
1C
1;
1L
1n
1s
0K
0M
0m
0r
b11 +
0'"
0)
1*
0)"
b10 #
1"
#1160000000000000000
0"
#1170000000000000000
0I
1H
0`
1W
13
0Y
1k
05
09
0C
01
0_
0E
0d
1/
0n
0h
1^
1\
0J
16
1p
1.
1D
1f
0q
1x
1i
0N
0e
0o
0w
0j
1-
b11 !
1,
b1 +
0$"
0*
1|
1~
0&"
b0 #
1"
#1180000000000000000
0"
#1190000000000000000
1F
1Q
1P
0I
0A
07
0@
0`
1H
0t
0Z
0U
18
12
1W
19
1:
01
1]
1E
1a
1Y
1d
1/
1v
0h
0^
0\
1J
00
1<
06
1p
0.
0D
0c
1z
0f
1q
0x
0i
0b
0u
0y
1N
1e
1o
1w
1j
0-
b0 !
0,
0!"
b10 +
1$"
1*
0|
0~
0#"
1&"
b10 #
1"
#1200000000000000000
0"
#1210000000000000000
0H
0W
0?
17
0R
1Z
1>
0F
0[
1T
0Q
0;
0P
0s
1K
1M
1m
1r
b1 !
1-
b110 +
1'"
1|
1)"
1"
#1220000000000000000
0"
#1230000000000000000
1I
1`
02
0/
0a
0p
0H
10
1A
11
1@
0W
1?
1c
1t
1h
1U
17
1R
09
0:
1Z
0>
0d
0v
0F
1[
0T
16
1.
0Q
1;
0O
1f
1x
0P
1s
0N
0e
0o
0w
0K
0M
0m
0r
0$"
b0 +
0'"
1)
0*
0&"
0)"
b1 #
1"
#1240000000000000000
0"
#1250000000000000000
0I
0`
1/
1H
08
12
1p
1W
01
0]
0E
1a
0q
0Y
0h
1^
1\
0J
00
0<
1D
0c
0z
1i
1b
1u
1y
0j
b1 +
1!"
0)
1#"
b0 #
1"
#1260000000000000000
0"
#1270000000000000000
1F
1Q
0A
07
1P
1H
18
0t
0Z
1I
0@
0?
12
1W
19
1]
1:
1`
0U
0R
1a
1Y
1S
1d
0\
1/
1v
03
1=
00
1<
06
1p
0.
0k
1g
0^
0c
1z
0f
1q
0x
04
0b
0u
0y
1N
1e
1o
1w
1j
0l
b0 !
0-
0!"
b10 +
1$"
1)
1*
0|
0#"
1&"
b11 #
1"
#1280000000000000000
0"
#1290000000000000000
1E
1J
0B
0H
0L
0W
1>
0I
0?
1A
17
1@
1T
0`
0R
1t
1Z
1U
0S
0F
0[
13
0=
0:
0<
0Q
0;
1k
0g
1^
0v
0z
0P
0s
14
1b
1u
1y
1K
1M
1m
1r
0j
1l
1!"
b111 +
1'"
0)
0*
1#"
1)"
b0 #
1"
#1300000000000000000
0"
#1310000000000000000
02
0a
0H
10
1I
1?
0W
0P
0/
1c
08
1`
1R
1A
17
1@
0p
09
0]
0E
13
0>
1t
1Z
1U
1S
0F
0d
1\
0J
1k
1[
0T
0:
1<
0Q
16
1.
1B
0C
1;
0v
1z
0O
1f
1q
1x
1L
0n
1s
0b
0u
0y
0N
0e
0o
0w
0K
0M
0m
0r
b1 !
1-
0!"
0$"
b0 +
0'"
1|
0#"
0&"
0)"
1"
#1320000000000000000
0"
#1330000000000000000
0I
0`
1/
1H
08
12
1p
15
1W
11
0]
1E
1a
0q
1_
0Y
1h
0^
0\
0S
1J
00
0<
0D
0c
0z
0i
1b
1u
1y
1j
b0 !
0-
b1 +
1!"
1)
0|
1#"
b1 #
1"
#1340000000000000000
0"
#1350000000000000000
1F
1Q
1P
0I
18
0A
01
07
0@
0`
1]
1H
0t
0h
0Z
0U
12
05
1W
19
1:
1a
0_
1Y
1d
1/
1v
00
1<
06
1p
0.
0c
1z
0f
1q
0x
0b
0u
0y
1N
1e
1o
1w
b1 !
1-
0!"
b10 +
1$"
0)
1*
1|
0#"
1&"
b10 #
1"
#1360000000000000000
0"
#1370000000000000000
0H
0W
0?
17
0R
1Z
1>
0F
0[
1T
0Q
0;
0P
0s
1K
1M
1m
1r
b110 +
1'"
1)"
1"
#1380000000000000000
0"
#1390000000000000000
1I
1`
02
0/
0a
0p
0H
10
1A
11
1@
0W
1?
1c
1t
1h
1U
17
1R
09
0:
1Z
0>
0d
0v
0F
1[
0T
16
1.
0Q
1;
0O
1f
1x
0P
1s
0N
0e
0o
0w
0K
0M
0m
0r
0$"
b0 +
0'"
1)
0*
0&"
0)"
b1 #
1"
#1400000000000000000
0"
#1410000000000000000
1F
03
19
1Q
1I
0k
08
1d
1P
1O
1`
1/
0H
01
0]
0E
06
0@
0?
12
1p
15
0W
0h
0\
0J
0f
0U
0R
1a
0q
1_
1Y
1D
1=
00
0<
1i
1g
0c
0z
04
1b
1u
1y
0l
b1 +
1!"
1*
1#"
b11 #
1"
#1420000000000000000
0"
#1430000000000000000
1H
1E
1W
1>
1J
0X
1T
0B
0;
0L
0P
0s
1K
1M
1m
1r
b0 !
0-
b101 +
1'"
0|
1)"
1"
#1440000000000000000
0"
#1450000000000000000
0H
0W
1X
18
0I
1@
1]
0`
0[
1U
05
0F
13
0=
0_
0Q
0.
1k
0g
1^
0O
1q
0x
14
1N
1e
1o
1w
0j
1l
b1 !
1-
b111 +
1$"
0)
0*
1|
1&"
b0 #
1"
#1460000000000000000
0"
#1470000000000000000
02
0a
0H
10
1I
1?
0W
0P
0/
1c
08
1`
1R
1A
17
1@
0p
09
0]
0E
13
0>
1t
1Z
1U
1S
0F
0d
1\
0J
1k
1[
0T
0:
1<
0Q
16
1.
1B
0C
1;
0v
1z
0O
1f
1q
1x
1L
0n
1s
0b
0u
0y
0N
0e
0o
0w
0K
0M
0m
0r
0!"
0$"
b0 +
0'"
0#"
0&"
0)"
1"
#1480000000000000000
0"
